{
  "@react-native-async-storage/async-storage": "^1.15.5",
  "@react-native-community/netinfo": "^6.0.0",
  "@react-navigation/native": "^6.0.0",
  "@react-navigation/stack": "^6.0.0",
  "react": "17.0.1",
  "react-native": "0.64.2",
  "react-redux": "^7.2.4",
  "redux": "^4.1.0",
  "redux-thunk": "^2.3.0"
}
