<?xml version="1.0" encoding="UTF-8"?>
<svg xmlns="http://www.w3.org/2000/svg" xmlns:xlink="http://www.w3.org/1999/xlink" width="32pt" height="30pt" viewBox="0 0 32 30" version="1.1">
<g id="surface1">
<path style=" stroke:none;fill-rule:evenodd;fill:rgb(89.803922%,33.72549%,33.72549%);fill-opacity:1;" d="M 16 0.0625 C 17.789062 0.0625 19.347656 1.046875 20.183594 2.503906 L 31.355469 22.039062 C 31.753906 22.738281 31.988281 23.546875 32 24.410156 C 32.035156 27.125 29.785156 29.347656 27.09375 29.347656 L 11.199219 29.347656 C 10.667969 29.347656 10.234375 28.914062 10.234375 28.375 C 10.234375 27.835938 10.667969 27.398438 11.199219 27.398438 L 27.171875 27.398438 C 28.769531 27.398438 30.070312 26.085938 30.070312 24.472656 C 30.070312 23.960938 29.933594 23.457031 29.683594 23.015625 L 18.511719 3.480469 C 18.007812 2.597656 17.082031 2.042969 16.082031 2.015625 C 16.054688 2.011719 16.027344 2.011719 16 2.011719 C 14.96875 2.011719 14.007812 2.574219 13.488281 3.480469 L 2.316406 23.015625 C 2.066406 23.457031 1.929688 23.960938 1.929688 24.472656 C 1.929688 26.085938 3.230469 27.398438 4.828125 27.398438 L 6.050781 27.398438 C 6.582031 27.398438 7.015625 27.835938 7.015625 28.375 C 7.015625 28.914062 6.582031 29.347656 6.050781 29.347656 L 4.90625 29.347656 C 2.214844 29.347656 -0.0351562 27.125 0 24.410156 C 0.0117188 23.546875 0.246094 22.738281 0.644531 22.039062 L 11.816406 2.503906 C 12.652344 1.046875 14.210938 0.0625 16 0.0625 Z M 16 20.898438 C 16.890625 20.898438 17.609375 21.625 17.609375 22.523438 C 17.609375 23.421875 16.890625 24.148438 16 24.148438 C 15.109375 24.148438 14.390625 23.421875 14.390625 22.523438 C 14.390625 21.625 15.109375 20.898438 16 20.898438 Z M 16 6.921875 C 16.890625 6.921875 17.609375 7.648438 17.609375 8.546875 L 17.609375 17.324219 C 17.609375 18.21875 16.890625 18.949219 16 18.949219 C 15.109375 18.949219 14.390625 18.21875 14.390625 17.324219 L 14.390625 8.546875 C 14.390625 7.648438 15.109375 6.921875 16 6.921875 Z M 16 6.921875 "/>
</g>
</svg>
